^c:\Users\Marceli\documents\visual studio 2015\Projects\CLI Clicker\CLI Clicker\CLI Clicker.vcxproj
c:\Users\Marceli\documents\visual studio 2015\Projects\CLI Clicker\CLI Clicker\Debug\CLI_Clicker.MyForm.resources
^c:\Users\Marceli\documents\visual studio 2015\Projects\CLI Clicker\CLI Clicker\CLI Clicker.vcxproj
c:\Users\Marceli\documents\visual studio 2015\Projects\CLI Clicker\CLI Clicker\Debug\CLI_Clicker.MyForm.resources
^c:\Users\Marceli\documents\visual studio 2015\Projects\CLI Clicker\CLI Clicker\CLI Clicker.vcxproj
c:\Users\Marceli\documents\visual studio 2015\Projects\CLI Clicker\CLI Clicker\Debug\CLI_Clicker.MyForm.resources
^c:\Users\Marceli\documents\visual studio 2015\Projects\CLI Clicker\CLI Clicker\CLI Clicker.vcxproj
c:\Users\Marceli\documents\visual studio 2015\Projects\CLI Clicker\CLI Clicker\Debug\CLI_Clicker.MyForm.resources
^c:\Users\Marceli\documents\visual studio 2015\Projects\CLI Clicker\CLI Clicker\CLI Clicker.vcxproj
c:\Users\Marceli\documents\visual studio 2015\Projects\CLI Clicker\CLI Clicker\Debug\CLI_Clicker.MyForm.resources
c:\Users\Marceli\documents\visual studio 2015\Projects\CLI Clicker\CLI Clicker\Debug\CLI_Clicker.MyForm1.resources
^c:\Users\Marceli\documents\visual studio 2015\Projects\CLI Clicker\CLI Clicker\CLI Clicker.vcxproj
c:\Users\Marceli\documents\visual studio 2015\Projects\CLI Clicker\CLI Clicker\Debug\CLI_Clicker.MyForm.resources
c:\Users\Marceli\documents\visual studio 2015\Projects\CLI Clicker\CLI Clicker\Debug\CLI_Clicker.MyForm1.resources
^C:\Users\Marceli\documents\visual studio 2015\Projects\CLI Clicker\CLI Clicker\CLI Clicker.vcxproj
C:\Users\Marceli\documents\visual studio 2015\Projects\CLI Clicker\CLI Clicker\Debug\CLI_Clicker.MyForm.resources
C:\Users\Marceli\documents\visual studio 2015\Projects\CLI Clicker\CLI Clicker\Debug\CLI_Clicker.MyForm1.resources
^C:\Users\Marceli\documents\visual studio 2015\Projects\CLI Clicker\CLI Clicker\CLI Clicker.vcxproj
C:\Users\Marceli\documents\visual studio 2015\Projects\CLI Clicker\CLI Clicker\Debug\CLI_Clicker.MyForm.resources
C:\Users\Marceli\documents\visual studio 2015\Projects\CLI Clicker\CLI Clicker\Debug\CLI_Clicker.MyForm1.resources
^C:\Users\Marceli\documents\visual studio 2015\Projects\CLI Clicker\CLI Clicker\CLI Clicker.vcxproj
C:\Users\Marceli\documents\visual studio 2015\Projects\CLI Clicker\CLI Clicker\Debug\CLI_Clicker.MyForm.resources
C:\Users\Marceli\documents\visual studio 2015\Projects\CLI Clicker\CLI Clicker\Debug\CLI_Clicker.MyForm1.resources
^C:\Users\Marceli\documents\visual studio 2015\Projects\CLI Clicker\CLI Clicker\CLI Clicker.vcxproj
C:\Users\Marceli\documents\visual studio 2015\Projects\CLI Clicker\CLI Clicker\Debug\CLI_Clicker.MyForm.resources
C:\Users\Marceli\documents\visual studio 2015\Projects\CLI Clicker\CLI Clicker\Debug\CLI_Clicker.MyForm1.resources
^C:\Users\Marceli\documents\visual studio 2015\Projects\CLI Clicker\CLI Clicker\CLI Clicker.vcxproj
C:\Users\Marceli\documents\visual studio 2015\Projects\CLI Clicker\CLI Clicker\Debug\CLI_Clicker.MyForm.resources
C:\Users\Marceli\documents\visual studio 2015\Projects\CLI Clicker\CLI Clicker\Debug\CLI_Clicker.MyForm1.resources
^C:\Users\Marceli\documents\visual studio 2015\Projects\CLI Clicker\CLI Clicker\CLI Clicker.vcxproj
C:\Users\Marceli\documents\visual studio 2015\Projects\CLI Clicker\CLI Clicker\Debug\CLI_Clicker.MyForm.resources
C:\Users\Marceli\documents\visual studio 2015\Projects\CLI Clicker\CLI Clicker\Debug\CLI_Clicker.MyForm1.resources
^C:\Users\Marceli\documents\visual studio 2015\Projects\CLI Clicker\CLI Clicker\CLI Clicker.vcxproj
C:\Users\Marceli\documents\visual studio 2015\Projects\CLI Clicker\CLI Clicker\Debug\CLI_Clicker.MyForm.resources
C:\Users\Marceli\documents\visual studio 2015\Projects\CLI Clicker\CLI Clicker\Debug\CLI_Clicker.MyForm1.resources
^C:\Users\Marceli\documents\visual studio 2015\Projects\CLI Clicker\CLI Clicker\CLI Clicker.vcxproj
C:\Users\Marceli\documents\visual studio 2015\Projects\CLI Clicker\CLI Clicker\Debug\CLI_Clicker.MyForm.resources
C:\Users\Marceli\documents\visual studio 2015\Projects\CLI Clicker\CLI Clicker\Debug\CLI_Clicker.MyForm1.resources
^C:\Users\Marceli\documents\visual studio 2015\Projects\CLI Clicker\CLI Clicker\CLI Clicker.vcxproj
C:\Users\Marceli\documents\visual studio 2015\Projects\CLI Clicker\CLI Clicker\Debug\CLI_Clicker.MyForm.resources
C:\Users\Marceli\documents\visual studio 2015\Projects\CLI Clicker\CLI Clicker\Debug\CLI_Clicker.MyForm1.resources
^C:\Users\Marceli\documents\visual studio 2015\Projects\CLI Clicker\CLI Clicker\CLI Clicker.vcxproj
C:\Users\Marceli\documents\visual studio 2015\Projects\CLI Clicker\CLI Clicker\Debug\CLI_Clicker.MyForm.resources
C:\Users\Marceli\documents\visual studio 2015\Projects\CLI Clicker\CLI Clicker\Debug\CLI_Clicker.MyForm1.resources
^C:\Users\Marceli\documents\visual studio 2015\Projects\CLI Clicker\CLI Clicker\CLI Clicker.vcxproj
C:\Users\Marceli\documents\visual studio 2015\Projects\CLI Clicker\CLI Clicker\Debug\CLI_Clicker.MyForm.resources
C:\Users\Marceli\documents\visual studio 2015\Projects\CLI Clicker\CLI Clicker\Debug\CLI_Clicker.MyForm1.resources
^C:\Users\Marceli\documents\visual studio 2015\Projects\CLI Clicker\CLI Clicker\CLI Clicker.vcxproj
C:\Users\Marceli\documents\visual studio 2015\Projects\CLI Clicker\CLI Clicker\Debug\CLI_Clicker.MyForm.resources
C:\Users\Marceli\documents\visual studio 2015\Projects\CLI Clicker\CLI Clicker\Debug\CLI_Clicker.MyForm1.resources
^C:\Users\Marceli\documents\visual studio 2015\Projects\CLI Clicker\CLI Clicker\CLI Clicker.vcxproj
C:\Users\Marceli\documents\visual studio 2015\Projects\CLI Clicker\CLI Clicker\Debug\CLI_Clicker.MyForm.resources
C:\Users\Marceli\documents\visual studio 2015\Projects\CLI Clicker\CLI Clicker\Debug\CLI_Clicker.MyForm1.resources
^C:\Users\Marceli\documents\visual studio 2015\Projects\CLI Clicker\CLI Clicker\CLI Clicker.vcxproj
C:\Users\Marceli\documents\visual studio 2015\Projects\CLI Clicker\CLI Clicker\Debug\CLI_Clicker.MyForm.resources
C:\Users\Marceli\documents\visual studio 2015\Projects\CLI Clicker\CLI Clicker\Debug\CLI_Clicker.MyForm1.resources
^C:\Users\Marceli\documents\visual studio 2015\Projects\CLI Clicker\CLI Clicker\CLI Clicker.vcxproj
C:\Users\Marceli\documents\visual studio 2015\Projects\CLI Clicker\CLI Clicker\Debug\CLI_Clicker.MyForm.resources
C:\Users\Marceli\documents\visual studio 2015\Projects\CLI Clicker\CLI Clicker\Debug\CLI_Clicker.MyForm1.resources
^C:\Users\Marceli\documents\visual studio 2015\Projects\CLI Clicker\CLI Clicker\CLI Clicker.vcxproj
C:\Users\Marceli\documents\visual studio 2015\Projects\CLI Clicker\CLI Clicker\Debug\CLI_Clicker.MyForm.resources
C:\Users\Marceli\documents\visual studio 2015\Projects\CLI Clicker\CLI Clicker\Debug\CLI_Clicker.MyForm1.resources
^C:\Users\Marceli\documents\visual studio 2015\Projects\CLI Clicker\CLI Clicker\CLI Clicker.vcxproj
C:\Users\Marceli\documents\visual studio 2015\Projects\CLI Clicker\CLI Clicker\Debug\CLI_Clicker.MyForm.resources
C:\Users\Marceli\documents\visual studio 2015\Projects\CLI Clicker\CLI Clicker\Debug\CLI_Clicker.MyForm1.resources
C:\Users\Marceli\documents\visual studio 2015\Projects\CLI Clicker\CLI Clicker\Debug\CLI_Clicker.sklep.resources
^C:\Users\Marceli\documents\visual studio 2015\Projects\CLI Clicker\CLI Clicker\CLI Clicker.vcxproj
C:\Users\Marceli\documents\visual studio 2015\Projects\CLI Clicker\CLI Clicker\Debug\CLI_Clicker.MyForm.resources
C:\Users\Marceli\documents\visual studio 2015\Projects\CLI Clicker\CLI Clicker\Debug\CLI_Clicker.MyForm1.resources
C:\Users\Marceli\documents\visual studio 2015\Projects\CLI Clicker\CLI Clicker\Debug\CLI_Clicker.sklep.resources
^C:\Users\Marceli\documents\visual studio 2015\Projects\CLI Clicker\CLI Clicker\CLI Clicker.vcxproj
C:\Users\Marceli\documents\visual studio 2015\Projects\CLI Clicker\CLI Clicker\Debug\CLI_Clicker.MyForm.resources
C:\Users\Marceli\documents\visual studio 2015\Projects\CLI Clicker\CLI Clicker\Debug\CLI_Clicker.MyForm1.resources
C:\Users\Marceli\documents\visual studio 2015\Projects\CLI Clicker\CLI Clicker\Debug\CLI_Clicker.sklep.resources
^C:\Users\Marceli\documents\visual studio 2015\Projects\CLI Clicker\CLI Clicker\CLI Clicker.vcxproj
C:\Users\Marceli\documents\visual studio 2015\Projects\CLI Clicker\CLI Clicker\Debug\CLI_Clicker.MyForm.resources
C:\Users\Marceli\documents\visual studio 2015\Projects\CLI Clicker\CLI Clicker\Debug\CLI_Clicker.MyForm1.resources
C:\Users\Marceli\documents\visual studio 2015\Projects\CLI Clicker\CLI Clicker\Debug\CLI_Clicker.sklep.resources
^C:\Users\Marceli\documents\visual studio 2015\Projects\CLI Clicker\CLI Clicker\CLI Clicker.vcxproj
C:\Users\Marceli\documents\visual studio 2015\Projects\CLI Clicker\CLI Clicker\Debug\CLI_Clicker.MyForm.resources
C:\Users\Marceli\documents\visual studio 2015\Projects\CLI Clicker\CLI Clicker\Debug\CLI_Clicker.MyForm1.resources
C:\Users\Marceli\documents\visual studio 2015\Projects\CLI Clicker\CLI Clicker\Debug\CLI_Clicker.sklep.resources
